<mxfile host="app.diagrams.net" modified="2023-02-07T05:56:44.260Z" agent="5.0 (X11; Ubuntu)" etag="CtvDytM49AAfvU3ZyBNT" version="20.8.17" type="gitlab">
  <diagram id="C5RBs43oDa-KdzZeNtuy" name="Page-1">
    <mxGraphModel dx="1039" dy="535" grid="0" gridSize="10" guides="1" tooltips="1" connect="1" arrows="1" fold="1" page="1" pageScale="1" pageWidth="827" pageHeight="1169" background="#3d3846" math="0" shadow="0">
      <root>
        <mxCell id="WIyWlLk6GJQsqaUBKTNV-0" />
        <mxCell id="WIyWlLk6GJQsqaUBKTNV-1" parent="WIyWlLk6GJQsqaUBKTNV-0" />
        <mxCell id="pdVHsKUeRn1arsV7z9ta-35" style="edgeStyle=orthogonalEdgeStyle;rounded=0;orthogonalLoop=1;jettySize=auto;html=1;entryX=0.5;entryY=0;entryDx=0;entryDy=0;fontStyle=1;fontSize=13;" edge="1" parent="WIyWlLk6GJQsqaUBKTNV-1" source="WIyWlLk6GJQsqaUBKTNV-3">
          <mxGeometry relative="1" as="geometry">
            <mxPoint x="430" y="90" as="targetPoint" />
          </mxGeometry>
        </mxCell>
        <mxCell id="WIyWlLk6GJQsqaUBKTNV-3" value="Mulai" style="rounded=1;whiteSpace=wrap;html=1;fontSize=13;glass=0;strokeWidth=1;shadow=0;arcSize=50;fontStyle=1" parent="WIyWlLk6GJQsqaUBKTNV-1" vertex="1">
          <mxGeometry x="370" y="16" width="120" height="40" as="geometry" />
        </mxCell>
        <mxCell id="pdVHsKUeRn1arsV7z9ta-44" value="" style="edgeStyle=orthogonalEdgeStyle;rounded=0;orthogonalLoop=1;jettySize=auto;html=1;fontStyle=1;fontSize=13;" edge="1" parent="WIyWlLk6GJQsqaUBKTNV-1" source="WIyWlLk6GJQsqaUBKTNV-6" target="pdVHsKUeRn1arsV7z9ta-43">
          <mxGeometry relative="1" as="geometry" />
        </mxCell>
        <mxCell id="pdVHsKUeRn1arsV7z9ta-76" value="" style="edgeStyle=orthogonalEdgeStyle;rounded=0;orthogonalLoop=1;jettySize=auto;html=1;fontStyle=1;fontSize=13;" edge="1" parent="WIyWlLk6GJQsqaUBKTNV-1" source="WIyWlLk6GJQsqaUBKTNV-6" target="pdVHsKUeRn1arsV7z9ta-75">
          <mxGeometry relative="1" as="geometry" />
        </mxCell>
        <mxCell id="WIyWlLk6GJQsqaUBKTNV-6" value="&lt;div style=&quot;font-size: 13px;&quot;&gt;Sebagai &lt;br style=&quot;font-size: 13px;&quot;&gt;&lt;/div&gt;&lt;div style=&quot;font-size: 13px;&quot;&gt;Freelance / Client &lt;/div&gt;" style="rhombus;whiteSpace=wrap;html=1;shadow=0;fontFamily=Helvetica;fontSize=13;align=center;strokeWidth=1;spacing=6;spacingTop=-4;fontStyle=1" parent="WIyWlLk6GJQsqaUBKTNV-1" vertex="1">
          <mxGeometry x="355" y="170" width="150" height="130" as="geometry" />
        </mxCell>
        <mxCell id="pdVHsKUeRn1arsV7z9ta-18" value="" style="edgeStyle=orthogonalEdgeStyle;rounded=0;orthogonalLoop=1;jettySize=auto;html=1;fontStyle=1;fontSize=13;" edge="1" parent="WIyWlLk6GJQsqaUBKTNV-1">
          <mxGeometry relative="1" as="geometry">
            <mxPoint x="200" y="255" as="sourcePoint" />
            <mxPoint x="200" y="290" as="targetPoint" />
          </mxGeometry>
        </mxCell>
        <mxCell id="pdVHsKUeRn1arsV7z9ta-36" style="edgeStyle=orthogonalEdgeStyle;rounded=0;orthogonalLoop=1;jettySize=auto;html=1;fontStyle=1;fontSize=13;" edge="1" parent="WIyWlLk6GJQsqaUBKTNV-1" target="WIyWlLk6GJQsqaUBKTNV-6">
          <mxGeometry relative="1" as="geometry">
            <mxPoint x="430" y="130" as="sourcePoint" />
          </mxGeometry>
        </mxCell>
        <mxCell id="pdVHsKUeRn1arsV7z9ta-48" value="" style="edgeStyle=orthogonalEdgeStyle;rounded=0;orthogonalLoop=1;jettySize=auto;html=1;fontStyle=1;fontSize=13;" edge="1" parent="WIyWlLk6GJQsqaUBKTNV-1" source="pdVHsKUeRn1arsV7z9ta-43" target="pdVHsKUeRn1arsV7z9ta-47">
          <mxGeometry relative="1" as="geometry" />
        </mxCell>
        <mxCell id="pdVHsKUeRn1arsV7z9ta-43" value="&lt;div style=&quot;font-size: 13px;&quot;&gt;Sebagai &lt;br style=&quot;font-size: 13px;&quot;&gt;&lt;/div&gt;&lt;div style=&quot;font-size: 13px;&quot;&gt;Freelance&lt;/div&gt;" style="shape=parallelogram;perimeter=parallelogramPerimeter;whiteSpace=wrap;html=1;fixedSize=1;shadow=0;strokeWidth=1;spacing=6;spacingTop=-4;fontStyle=1;fontSize=13;" vertex="1" parent="WIyWlLk6GJQsqaUBKTNV-1">
          <mxGeometry x="583" y="205" width="125" height="60" as="geometry" />
        </mxCell>
        <mxCell id="pdVHsKUeRn1arsV7z9ta-45" value="membuat akun" style="rounded=0;whiteSpace=wrap;html=1;fontStyle=1;fontSize=13;" vertex="1" parent="WIyWlLk6GJQsqaUBKTNV-1">
          <mxGeometry x="372" y="87" width="120" height="40" as="geometry" />
        </mxCell>
        <mxCell id="pdVHsKUeRn1arsV7z9ta-50" value="" style="edgeStyle=orthogonalEdgeStyle;rounded=0;orthogonalLoop=1;jettySize=auto;html=1;fontStyle=1;fontSize=13;" edge="1" parent="WIyWlLk6GJQsqaUBKTNV-1" source="pdVHsKUeRn1arsV7z9ta-47" target="pdVHsKUeRn1arsV7z9ta-49">
          <mxGeometry relative="1" as="geometry" />
        </mxCell>
        <mxCell id="pdVHsKUeRn1arsV7z9ta-47" value="Isi data diri" style="whiteSpace=wrap;html=1;shadow=0;strokeWidth=1;spacing=6;spacingTop=-4;fontStyle=1;fontSize=13;" vertex="1" parent="WIyWlLk6GJQsqaUBKTNV-1">
          <mxGeometry x="585.5" y="296" width="120" height="60" as="geometry" />
        </mxCell>
        <mxCell id="pdVHsKUeRn1arsV7z9ta-52" value="" style="edgeStyle=orthogonalEdgeStyle;rounded=0;orthogonalLoop=1;jettySize=auto;html=1;fontStyle=1;fontSize=13;" edge="1" parent="WIyWlLk6GJQsqaUBKTNV-1" source="pdVHsKUeRn1arsV7z9ta-49" target="pdVHsKUeRn1arsV7z9ta-51">
          <mxGeometry relative="1" as="geometry" />
        </mxCell>
        <mxCell id="pdVHsKUeRn1arsV7z9ta-49" value="Upload Portofolio" style="whiteSpace=wrap;html=1;shadow=0;strokeWidth=1;spacing=6;spacingTop=-4;fontStyle=1;fontSize=13;" vertex="1" parent="WIyWlLk6GJQsqaUBKTNV-1">
          <mxGeometry x="585.5" y="397" width="120" height="60" as="geometry" />
        </mxCell>
        <mxCell id="pdVHsKUeRn1arsV7z9ta-54" value="" style="edgeStyle=orthogonalEdgeStyle;rounded=0;orthogonalLoop=1;jettySize=auto;html=1;fontStyle=1;fontSize=13;" edge="1" parent="WIyWlLk6GJQsqaUBKTNV-1" source="pdVHsKUeRn1arsV7z9ta-51" target="pdVHsKUeRn1arsV7z9ta-53">
          <mxGeometry relative="1" as="geometry">
            <Array as="points">
              <mxPoint x="652" y="627" />
            </Array>
          </mxGeometry>
        </mxCell>
        <mxCell id="pdVHsKUeRn1arsV7z9ta-51" value="Ambil Job" style="shape=parallelogram;perimeter=parallelogramPerimeter;whiteSpace=wrap;html=1;fixedSize=1;shadow=0;strokeWidth=1;spacing=6;spacingTop=-4;fontStyle=1;fontSize=13;" vertex="1" parent="WIyWlLk6GJQsqaUBKTNV-1">
          <mxGeometry x="585.5" y="494" width="120" height="60" as="geometry" />
        </mxCell>
        <mxCell id="pdVHsKUeRn1arsV7z9ta-56" value="" style="edgeStyle=orthogonalEdgeStyle;rounded=0;orthogonalLoop=1;jettySize=auto;html=1;fontStyle=1;fontSize=13;" edge="1" parent="WIyWlLk6GJQsqaUBKTNV-1" source="pdVHsKUeRn1arsV7z9ta-53" target="pdVHsKUeRn1arsV7z9ta-55">
          <mxGeometry relative="1" as="geometry">
            <Array as="points">
              <mxPoint x="459" y="640" />
            </Array>
          </mxGeometry>
        </mxCell>
        <mxCell id="pdVHsKUeRn1arsV7z9ta-53" value="Kirim penawaran" style="whiteSpace=wrap;html=1;shadow=0;strokeWidth=1;spacing=6;spacingTop=-4;fontStyle=1;fontSize=13;" vertex="1" parent="WIyWlLk6GJQsqaUBKTNV-1">
          <mxGeometry x="576" y="610" width="120" height="60" as="geometry" />
        </mxCell>
        <mxCell id="pdVHsKUeRn1arsV7z9ta-58" value="" style="edgeStyle=orthogonalEdgeStyle;rounded=0;orthogonalLoop=1;jettySize=auto;html=1;fontStyle=1;fontSize=13;" edge="1" parent="WIyWlLk6GJQsqaUBKTNV-1" source="pdVHsKUeRn1arsV7z9ta-55" target="pdVHsKUeRn1arsV7z9ta-57">
          <mxGeometry relative="1" as="geometry">
            <Array as="points">
              <mxPoint x="459" y="791" />
            </Array>
          </mxGeometry>
        </mxCell>
        <mxCell id="pdVHsKUeRn1arsV7z9ta-61" value="" style="edgeStyle=orthogonalEdgeStyle;rounded=0;orthogonalLoop=1;jettySize=auto;html=1;fontStyle=1;fontSize=13;" edge="1" parent="WIyWlLk6GJQsqaUBKTNV-1" source="pdVHsKUeRn1arsV7z9ta-55" target="pdVHsKUeRn1arsV7z9ta-60">
          <mxGeometry relative="1" as="geometry">
            <Array as="points">
              <mxPoint x="459" y="790" />
            </Array>
          </mxGeometry>
        </mxCell>
        <mxCell id="pdVHsKUeRn1arsV7z9ta-55" value="&lt;div style=&quot;font-size: 13px;&quot;&gt;Hasil penawaran&lt;/div&gt;" style="rhombus;whiteSpace=wrap;html=1;shadow=0;strokeWidth=1;spacing=6;spacingTop=-4;fontStyle=1;fontSize=13;" vertex="1" parent="WIyWlLk6GJQsqaUBKTNV-1">
          <mxGeometry x="404" y="670" width="109.5" height="96" as="geometry" />
        </mxCell>
        <mxCell id="pdVHsKUeRn1arsV7z9ta-59" style="edgeStyle=orthogonalEdgeStyle;rounded=0;orthogonalLoop=1;jettySize=auto;html=1;fontStyle=1;fontSize=13;" edge="1" parent="WIyWlLk6GJQsqaUBKTNV-1" source="pdVHsKUeRn1arsV7z9ta-57" target="pdVHsKUeRn1arsV7z9ta-51">
          <mxGeometry relative="1" as="geometry">
            <mxPoint x="456" y="494" as="targetPoint" />
            <Array as="points">
              <mxPoint x="743" y="524" />
            </Array>
          </mxGeometry>
        </mxCell>
        <mxCell id="pdVHsKUeRn1arsV7z9ta-57" value="&lt;div style=&quot;font-size: 13px;&quot;&gt;Penawaran &lt;br style=&quot;font-size: 13px;&quot;&gt;&lt;/div&gt;&lt;div style=&quot;font-size: 13px;&quot;&gt;tidak diterima&lt;br style=&quot;font-size: 13px;&quot;&gt;&lt;/div&gt;" style="shape=parallelogram;perimeter=parallelogramPerimeter;whiteSpace=wrap;html=1;fixedSize=1;shadow=0;strokeWidth=1;spacing=6;spacingTop=-4;fontStyle=1;fontSize=13;" vertex="1" parent="WIyWlLk6GJQsqaUBKTNV-1">
          <mxGeometry x="676" y="772" width="120" height="60" as="geometry" />
        </mxCell>
        <mxCell id="pdVHsKUeRn1arsV7z9ta-63" value="" style="edgeStyle=orthogonalEdgeStyle;rounded=0;orthogonalLoop=1;jettySize=auto;html=1;fontStyle=1;fontSize=13;" edge="1" parent="WIyWlLk6GJQsqaUBKTNV-1" source="pdVHsKUeRn1arsV7z9ta-60" target="pdVHsKUeRn1arsV7z9ta-62">
          <mxGeometry relative="1" as="geometry">
            <Array as="points">
              <mxPoint x="198" y="928" />
            </Array>
          </mxGeometry>
        </mxCell>
        <mxCell id="pdVHsKUeRn1arsV7z9ta-60" value="&lt;div style=&quot;font-size: 13px;&quot;&gt;Penawaran &lt;br style=&quot;font-size: 13px;&quot;&gt;&lt;/div&gt;&lt;div style=&quot;font-size: 13px;&quot;&gt;diterima&lt;/div&gt;" style="shape=parallelogram;perimeter=parallelogramPerimeter;whiteSpace=wrap;html=1;fixedSize=1;shadow=0;strokeWidth=1;spacing=6;spacingTop=-4;fontStyle=1;fontSize=13;" vertex="1" parent="WIyWlLk6GJQsqaUBKTNV-1">
          <mxGeometry x="149" y="772" width="120" height="60" as="geometry" />
        </mxCell>
        <mxCell id="pdVHsKUeRn1arsV7z9ta-65" value="" style="edgeStyle=orthogonalEdgeStyle;rounded=0;orthogonalLoop=1;jettySize=auto;html=1;fontStyle=1;fontSize=13;" edge="1" parent="WIyWlLk6GJQsqaUBKTNV-1" source="pdVHsKUeRn1arsV7z9ta-62" target="pdVHsKUeRn1arsV7z9ta-64">
          <mxGeometry relative="1" as="geometry" />
        </mxCell>
        <mxCell id="pdVHsKUeRn1arsV7z9ta-62" value="&lt;div style=&quot;font-size: 13px;&quot;&gt;Pengerjaan&lt;/div&gt;&lt;div style=&quot;font-size: 13px;&quot;&gt;Job&lt;/div&gt;" style="whiteSpace=wrap;html=1;shadow=0;strokeWidth=1;spacing=6;spacingTop=-4;fontStyle=1;fontSize=13;" vertex="1" parent="WIyWlLk6GJQsqaUBKTNV-1">
          <mxGeometry x="408" y="907" width="120" height="60" as="geometry" />
        </mxCell>
        <mxCell id="pdVHsKUeRn1arsV7z9ta-67" value="" style="edgeStyle=orthogonalEdgeStyle;rounded=0;orthogonalLoop=1;jettySize=auto;html=1;fontStyle=1;fontSize=13;" edge="1" parent="WIyWlLk6GJQsqaUBKTNV-1" source="pdVHsKUeRn1arsV7z9ta-64" target="pdVHsKUeRn1arsV7z9ta-66">
          <mxGeometry relative="1" as="geometry" />
        </mxCell>
        <mxCell id="pdVHsKUeRn1arsV7z9ta-64" value="&lt;div style=&quot;font-size: 13px;&quot;&gt;Kirim hasil&lt;/div&gt;" style="shape=parallelogram;perimeter=parallelogramPerimeter;whiteSpace=wrap;html=1;fixedSize=1;shadow=0;strokeWidth=1;spacing=6;spacingTop=-4;fontStyle=1;fontSize=13;" vertex="1" parent="WIyWlLk6GJQsqaUBKTNV-1">
          <mxGeometry x="408" y="1019" width="120" height="60" as="geometry" />
        </mxCell>
        <mxCell id="pdVHsKUeRn1arsV7z9ta-69" value="" style="edgeStyle=orthogonalEdgeStyle;rounded=0;orthogonalLoop=1;jettySize=auto;html=1;fontStyle=1;fontSize=13;" edge="1" parent="WIyWlLk6GJQsqaUBKTNV-1" source="pdVHsKUeRn1arsV7z9ta-66" target="pdVHsKUeRn1arsV7z9ta-68">
          <mxGeometry relative="1" as="geometry" />
        </mxCell>
        <mxCell id="pdVHsKUeRn1arsV7z9ta-72" value="" style="edgeStyle=orthogonalEdgeStyle;rounded=0;orthogonalLoop=1;jettySize=auto;html=1;fontStyle=1;fontSize=13;" edge="1" parent="WIyWlLk6GJQsqaUBKTNV-1" source="pdVHsKUeRn1arsV7z9ta-66" target="pdVHsKUeRn1arsV7z9ta-95">
          <mxGeometry relative="1" as="geometry">
            <mxPoint x="262" y="1180" as="targetPoint" />
          </mxGeometry>
        </mxCell>
        <mxCell id="pdVHsKUeRn1arsV7z9ta-66" value="&lt;div style=&quot;font-size: 13px;&quot;&gt;Revisi &lt;br style=&quot;font-size: 13px;&quot;&gt;&lt;/div&gt;&lt;div style=&quot;font-size: 13px;&quot;&gt;atau &lt;br style=&quot;font-size: 13px;&quot;&gt;&lt;/div&gt;&lt;div style=&quot;font-size: 13px;&quot;&gt;Terima&lt;br style=&quot;font-size: 13px;&quot;&gt;&lt;/div&gt;" style="rhombus;whiteSpace=wrap;html=1;shadow=0;strokeWidth=1;spacing=6;spacingTop=-4;fontStyle=1;fontSize=13;" vertex="1" parent="WIyWlLk6GJQsqaUBKTNV-1">
          <mxGeometry x="412.75" y="1134" width="110.5" height="92" as="geometry" />
        </mxCell>
        <mxCell id="pdVHsKUeRn1arsV7z9ta-70" style="edgeStyle=orthogonalEdgeStyle;rounded=0;orthogonalLoop=1;jettySize=auto;html=1;fontStyle=1;fontSize=13;" edge="1" parent="WIyWlLk6GJQsqaUBKTNV-1" source="pdVHsKUeRn1arsV7z9ta-68" target="pdVHsKUeRn1arsV7z9ta-62">
          <mxGeometry relative="1" as="geometry">
            <Array as="points">
              <mxPoint x="738" y="939" />
            </Array>
          </mxGeometry>
        </mxCell>
        <mxCell id="pdVHsKUeRn1arsV7z9ta-68" value="Revisi" style="shape=parallelogram;perimeter=parallelogramPerimeter;whiteSpace=wrap;html=1;fixedSize=1;shadow=0;strokeWidth=1;spacing=6;spacingTop=-4;fontStyle=1;fontSize=13;" vertex="1" parent="WIyWlLk6GJQsqaUBKTNV-1">
          <mxGeometry x="674" y="1150" width="120" height="60" as="geometry" />
        </mxCell>
        <mxCell id="pdVHsKUeRn1arsV7z9ta-75" value="&lt;div style=&quot;font-size: 13px;&quot;&gt;Sebagai&lt;/div&gt;&lt;div style=&quot;font-size: 13px;&quot;&gt;Client&lt;br style=&quot;font-size: 13px;&quot;&gt;&lt;/div&gt;" style="shape=parallelogram;perimeter=parallelogramPerimeter;whiteSpace=wrap;html=1;fixedSize=1;shadow=0;strokeWidth=1;spacing=6;spacingTop=-4;fontStyle=1;fontSize=13;" vertex="1" parent="WIyWlLk6GJQsqaUBKTNV-1">
          <mxGeometry x="140" y="205" width="120" height="60" as="geometry" />
        </mxCell>
        <mxCell id="pdVHsKUeRn1arsV7z9ta-79" value="" style="edgeStyle=orthogonalEdgeStyle;rounded=0;orthogonalLoop=1;jettySize=auto;html=1;fontStyle=1;fontSize=13;" edge="1" parent="WIyWlLk6GJQsqaUBKTNV-1" source="pdVHsKUeRn1arsV7z9ta-77" target="pdVHsKUeRn1arsV7z9ta-78">
          <mxGeometry relative="1" as="geometry" />
        </mxCell>
        <mxCell id="pdVHsKUeRn1arsV7z9ta-77" value="Isi data diri" style="whiteSpace=wrap;html=1;shadow=0;strokeWidth=1;spacing=6;spacingTop=-4;fontStyle=1;fontSize=13;" vertex="1" parent="WIyWlLk6GJQsqaUBKTNV-1">
          <mxGeometry x="140" y="294" width="120" height="60" as="geometry" />
        </mxCell>
        <mxCell id="pdVHsKUeRn1arsV7z9ta-81" value="" style="edgeStyle=orthogonalEdgeStyle;rounded=0;orthogonalLoop=1;jettySize=auto;html=1;fontStyle=1;fontSize=13;" edge="1" parent="WIyWlLk6GJQsqaUBKTNV-1" source="pdVHsKUeRn1arsV7z9ta-78" target="pdVHsKUeRn1arsV7z9ta-80">
          <mxGeometry relative="1" as="geometry" />
        </mxCell>
        <mxCell id="pdVHsKUeRn1arsV7z9ta-78" value="Buat Job" style="whiteSpace=wrap;html=1;shadow=0;strokeWidth=1;spacing=6;spacingTop=-4;fontStyle=1;fontSize=13;" vertex="1" parent="WIyWlLk6GJQsqaUBKTNV-1">
          <mxGeometry x="140" y="383" width="120" height="60" as="geometry" />
        </mxCell>
        <mxCell id="pdVHsKUeRn1arsV7z9ta-90" style="edgeStyle=orthogonalEdgeStyle;rounded=0;orthogonalLoop=1;jettySize=auto;html=1;entryX=0;entryY=0.25;entryDx=0;entryDy=0;fontStyle=1;fontSize=13;" edge="1" parent="WIyWlLk6GJQsqaUBKTNV-1" source="pdVHsKUeRn1arsV7z9ta-80" target="pdVHsKUeRn1arsV7z9ta-51">
          <mxGeometry relative="1" as="geometry" />
        </mxCell>
        <mxCell id="pdVHsKUeRn1arsV7z9ta-80" value="Upload Job" style="shape=parallelogram;perimeter=parallelogramPerimeter;whiteSpace=wrap;html=1;fixedSize=1;shadow=0;strokeWidth=1;spacing=6;spacingTop=-4;fontStyle=1;fontSize=13;" vertex="1" parent="WIyWlLk6GJQsqaUBKTNV-1">
          <mxGeometry x="140" y="483" width="120" height="60" as="geometry" />
        </mxCell>
        <mxCell id="pdVHsKUeRn1arsV7z9ta-97" value="" style="edgeStyle=orthogonalEdgeStyle;rounded=0;orthogonalLoop=1;jettySize=auto;html=1;fontStyle=1;fontSize=13;" edge="1" parent="WIyWlLk6GJQsqaUBKTNV-1" source="pdVHsKUeRn1arsV7z9ta-95" target="pdVHsKUeRn1arsV7z9ta-96">
          <mxGeometry relative="1" as="geometry">
            <Array as="points">
              <mxPoint x="193" y="1319" />
            </Array>
          </mxGeometry>
        </mxCell>
        <mxCell id="pdVHsKUeRn1arsV7z9ta-95" value="Terima" style="shape=parallelogram;perimeter=parallelogramPerimeter;whiteSpace=wrap;html=1;fixedSize=1;fontStyle=1;fontSize=13;" vertex="1" parent="WIyWlLk6GJQsqaUBKTNV-1">
          <mxGeometry x="137" y="1150" width="120" height="60" as="geometry" />
        </mxCell>
        <mxCell id="pdVHsKUeRn1arsV7z9ta-102" value="" style="edgeStyle=orthogonalEdgeStyle;rounded=0;orthogonalLoop=1;jettySize=auto;html=1;fontStyle=1;fontSize=13;" edge="1" parent="WIyWlLk6GJQsqaUBKTNV-1" source="pdVHsKUeRn1arsV7z9ta-96" target="pdVHsKUeRn1arsV7z9ta-101">
          <mxGeometry relative="1" as="geometry" />
        </mxCell>
        <mxCell id="pdVHsKUeRn1arsV7z9ta-96" value="Pembayaran" style="whiteSpace=wrap;html=1;fontStyle=1;fontSize=13;" vertex="1" parent="WIyWlLk6GJQsqaUBKTNV-1">
          <mxGeometry x="408" y="1289" width="120" height="60" as="geometry" />
        </mxCell>
        <mxCell id="pdVHsKUeRn1arsV7z9ta-104" value="" style="edgeStyle=orthogonalEdgeStyle;rounded=0;orthogonalLoop=1;jettySize=auto;html=1;fontStyle=1;fontSize=13;" edge="1" parent="WIyWlLk6GJQsqaUBKTNV-1" source="pdVHsKUeRn1arsV7z9ta-101" target="pdVHsKUeRn1arsV7z9ta-103">
          <mxGeometry relative="1" as="geometry" />
        </mxCell>
        <mxCell id="pdVHsKUeRn1arsV7z9ta-101" value="Beri ulasan" style="whiteSpace=wrap;html=1;fontStyle=1;fontSize=13;" vertex="1" parent="WIyWlLk6GJQsqaUBKTNV-1">
          <mxGeometry x="408" y="1429" width="120" height="60" as="geometry" />
        </mxCell>
        <mxCell id="pdVHsKUeRn1arsV7z9ta-103" value="SELESAI" style="shape=parallelogram;perimeter=parallelogramPerimeter;whiteSpace=wrap;html=1;fixedSize=1;fontStyle=1;fontSize=13;" vertex="1" parent="WIyWlLk6GJQsqaUBKTNV-1">
          <mxGeometry x="408" y="1569" width="120" height="60" as="geometry" />
        </mxCell>
      </root>
    </mxGraphModel>
  </diagram>
</mxfile>
